{
    "TrkAnaEF" : {
        "enabled" : true,
        "TestType"  : "EFTrigger",
        "RefType"   : "Truth",
        "TrigTrkKey": "xAODFPGAProtoTracksTrackParticles",
        "MatchingType"  : "TruthMatch",
        "truthMinEta"   : 0.1,
        "truthMaxEta"   : 0.3,
        "truthMinPhi"   : 0.3,
        "truthMaxPhi"   : 0.5,
        "truthPdgId"    : 13,
        "truthMinD0"    : -2.0,
        "truthMaxD0"    : 2.0,
        "truthMinZ0"    : -150.0,
        "truthMaxZ0"    : 150.0,
        "truthMinQoPT"  : -0.001,
        "truthMaxQoPT"  : 0.001

    },
    "TrkAnaOffl" : {
        "enabled" : true,
        "TestType"  : "Offline",
        "RefType"   : "Truth",
        "MatchingType"  : "TruthMatch",
        "truthMinEta"   : 0.1,
        "truthMaxEta"   : 0.3,
        "truthMinPhi"   : 0.3,
        "truthMaxPhi"   : 0.5,
        "truthPdgId"    : 13,
        "truthMinD0"    : -2.0,
        "truthMaxD0"    : 2.0,
        "truthMinZ0"    : -150.0,
        "truthMaxZ0"    : 150.0,
        "truthMinQoPT"  : -0.001,
        "truthMaxQoPT"  : 0.001
    },
    "TrkAnaDoubleRatio" : {
        "enabled" : true,
        "TestType"  : "EFTrigger",
        "RefType"   : "Offline",
        "TrigTrkKey": "xAODFPGAProtoTracksTrackParticles",
        "MatchingType"  : "EFTruthMatch",
        "SelectOfflineObject" : "Truth",
        "plotTrackParameters" : false,
        "truthMinEta"   : 0.1,
        "truthMaxEta"   : 0.3,
        "truthMinPhi"   : 0.3,
        "truthMaxPhi"   : 0.5,
        "truthPdgId"    : 13,
        "truthMinD0"    : -2.0,
        "truthMaxD0"    : 2.0,
        "truthMinZ0"    : -150.0,
        "truthMaxZ0"    : 150.0,
        "truthMinQoPT"  : -0.001,
        "truthMaxQoPT"  : 0.001
    }
}