AthenaPoolTestDataWriter                            DEBUG Executing AthenaPoolTestDataWriter
AthenaPoolTestDataWriter                            DEBUG Collection of A's
AthenaPoolTestDataWriter                            DEBUG AthenaPoolTestA::printWhoYouAre A - a, b 1 2
AthenaPoolTestDataWriter                            DEBUG AthenaPoolTestA::printWhoYouAre A - a, b 2 3
AthenaPoolTestDataWriter                            DEBUG AthenaPoolTestA::printWhoYouAre A - a, b 3 4
AthenaPoolTestDataWriter                            DEBUG AthenaPoolTestA::printWhoYouAre A - a, b 4 5
AthenaPoolTestDataWriter                            DEBUG AthenaPoolTestA::printWhoYouAre A - a, b 5 6
AthenaPoolTestDataWriter                            DEBUG Collection of B's
AthenaPoolTestDataWriter                            DEBUG AthenaPoolTestB::printWhoYouAre B - c, d 11 12 fa, da 7 13
AthenaPoolTestDataWriter                            DEBUG AthenaPoolTestB::printWhoYouAre B - c, d 12 13 fa, da 7 13
AthenaPoolTestDataWriter                            DEBUG AthenaPoolTestB::printWhoYouAre B - c, d 13 14 fa, da 7 13
AthenaPoolTestDataWriter                            DEBUG AthenaPoolTestB::printWhoYouAre B - c, d 14 15 fa, da 7 13
AthenaPoolTestDataWriter                            DEBUG AthenaPoolTestB::printWhoYouAre B - c, d 15 16 fa, da 7 13
AthenaPoolTestDataWriter                            DEBUG Collection of A's and B's
AthenaPoolTestDataWriter                            DEBUG AthenaPoolTestA::printWhoYouAre A - a, b 21 22
AthenaPoolTestDataWriter                            DEBUG AthenaPoolTestA::printWhoYouAre A - a, b 22 23
AthenaPoolTestDataWriter                            DEBUG AthenaPoolTestA::printWhoYouAre A - a, b 23 24
AthenaPoolTestDataWriter                            DEBUG AthenaPoolTestB::printWhoYouAre B - c, d 24 25 fa, da 7 13
AthenaPoolTestDataWriter                            DEBUG AthenaPoolTestB::printWhoYouAre B - c, d 25 26 fa, da 7 13
AthenaPoolTestDataWriter                            DEBUG AthenaPoolTestB::printWhoYouAre B - c, d 26 27 fa, da 7 13
AthenaPoolTestDataWriter                            DEBUG Collection of C's
AthenaPoolTestDataWriter                            DEBUG AthenaPoolTestC::printWhoYouAre C - a, b, c, d 0 0 3 4
AthenaPoolTestDataWriter                            DEBUG AthenaPoolTestC::printWhoYouAre C - a, b, c, d 0 0 4 5
AthenaPoolTestDataWriter                            DEBUG AthenaPoolTestC::printWhoYouAre C - a, b, c, d 0 0 5 6
AthenaPoolTestDataWriter                            DEBUG AthenaPoolTestC::printWhoYouAre C - a, b, c, d 0 0 6 7
AthenaPoolTestDataWriter                            DEBUG AthenaPoolTestC::printWhoYouAre C - a, b, c, d 0 0 7 8
AthenaPoolTestDataWriter                            DEBUG Collection of D's
AthenaPoolTestDataWriter                            DEBUG AthenaPoolTestD::printWhoYouAre D - e, f 15 16 AthenaPoolTestC::printWhoYouAre C - a, b, c, d 0 0 13 14
AthenaPoolTestDataWriter                            DEBUG AthenaPoolTestD::printWhoYouAre D - e, f 16 17 AthenaPoolTestC::printWhoYouAre C - a, b, c, d 0 0 14 15
AthenaPoolTestDataWriter                            DEBUG AthenaPoolTestD::printWhoYouAre D - e, f 17 18 AthenaPoolTestC::printWhoYouAre C - a, b, c, d 0 0 15 16
AthenaPoolTestDataWriter                            DEBUG AthenaPoolTestD::printWhoYouAre D - e, f 18 19 AthenaPoolTestC::printWhoYouAre C - a, b, c, d 0 0 16 17
AthenaPoolTestDataWriter                            DEBUG AthenaPoolTestD::printWhoYouAre D - e, f 19 20 AthenaPoolTestC::printWhoYouAre C - a, b, c, d 0 0 17 18
AthenaPoolTestDataWriter                            DEBUG Registering matrix 1 AthenaPoolTestMatrix_0
AthenaPoolTestDataWriter                            DEBUG    Points (by value,by ptr) x,y,z : 1 2 3 , x,y,z 4 5 6 
AthenaPoolTestDataWriter                            DEBUG    Small matrix : ( 4, 4 ) 
AthenaPoolTestDataWriter                            DEBUG    Big matrix : ( 6, 6 ) 
AthenaPoolTestDataWriter                            DEBUG    Other matrices : 
AthenaPoolTestDataWriter                            DEBUG                   ( 4, 2 ) 
AthenaPoolTestDataWriter                            DEBUG                   ( 5, 2 ) 
AthenaPoolTestDataWriter                            DEBUG    N doubles : 73
AthenaPoolTestDataWriter                            DEBUG    Matrix maps : 2
AthenaPoolTestDataWriter                            DEBUG    Key, row, column 5 4, 4
AthenaPoolTestDataWriter                            DEBUG    Key, row, column 10 6, 6
AthenaPoolTestDataWriter                            DEBUG    Key, row, column 16 6, 6
AthenaPoolTestDataWriter                            DEBUG    Key, row, column 35 4, 4
AthenaPoolTestDataWriter                            DEBUG    Matrix transform: 
AthenaPoolTestDataWriter                            DEBUG    Matrix transform: 
AthenaPoolTestDataWriter                            DEBUG   xx 1
AthenaPoolTestDataWriter                            DEBUG   xy 0
AthenaPoolTestDataWriter                            DEBUG   xz 0
AthenaPoolTestDataWriter                            DEBUG   yx 0
AthenaPoolTestDataWriter                            DEBUG   yy 1
AthenaPoolTestDataWriter                            DEBUG   yz 0
AthenaPoolTestDataWriter                            DEBUG   zx 0
AthenaPoolTestDataWriter                            DEBUG   zy 0
AthenaPoolTestDataWriter                            DEBUG   zz 1
AthenaPoolTestDataWriter                            DEBUG   dx 0
AthenaPoolTestDataWriter                            DEBUG   dy 0
AthenaPoolTestDataWriter                            DEBUG   dz 0
AthenaPoolTestDataWriter                            DEBUG Registering matrix 2 AthenaPoolTestMatrix_1
AthenaPoolTestDataWriter                            DEBUG    Points (by value,by ptr) x,y,z : 1 2 3 , x,y,z 4 5 6 
AthenaPoolTestDataWriter                            DEBUG    Small matrix : ( 4, 4 ) 
AthenaPoolTestDataWriter                            DEBUG    Big matrix : ( 6, 6 ) 
AthenaPoolTestDataWriter                            DEBUG    Other matrices : 
AthenaPoolTestDataWriter                            DEBUG                   ( 4, 4 ) 
AthenaPoolTestDataWriter                            DEBUG                   ( 5, 4 ) 
AthenaPoolTestDataWriter                            DEBUG    N doubles : 164
AthenaPoolTestDataWriter                            DEBUG    Matrix maps : 2
AthenaPoolTestDataWriter                            DEBUG    Key, row, column 5 4, 4
AthenaPoolTestDataWriter                            DEBUG    Key, row, column 10 6, 6
AthenaPoolTestDataWriter                            DEBUG    Key, row, column 16 6, 6
AthenaPoolTestDataWriter                            DEBUG    Key, row, column 35 4, 4
AthenaPoolTestDataWriter                            DEBUG    Matrix transform: 
AthenaPoolTestDataWriter                            DEBUG    Matrix transform: 
AthenaPoolTestDataWriter                            DEBUG   xx -0.333333
AthenaPoolTestDataWriter                            DEBUG   xy 0.666667
AthenaPoolTestDataWriter                            DEBUG   xz 0.666667
AthenaPoolTestDataWriter                            DEBUG   yx -0.666667
AthenaPoolTestDataWriter                            DEBUG   yy 0.333333
AthenaPoolTestDataWriter                            DEBUG   yz -0.666667
AthenaPoolTestDataWriter                            DEBUG   zx -0.666667
AthenaPoolTestDataWriter                            DEBUG   zy -0.666667
AthenaPoolTestDataWriter                            DEBUG   zz 0.333333
AthenaPoolTestDataWriter                            DEBUG   dx 0
AthenaPoolTestDataWriter                            DEBUG   dy 0
AthenaPoolTestDataWriter                            DEBUG   dz 0
AthenaPoolTestDataWriter                            DEBUG Registering matrix 3 AthenaPoolTestMatrix_2
AthenaPoolTestDataWriter                            DEBUG    Points (by value,by ptr) x,y,z : 1 2 3 , x,y,z 4 5 6 
AthenaPoolTestDataWriter                            DEBUG    Small matrix : ( 4, 4 ) 
AthenaPoolTestDataWriter                            DEBUG    Big matrix : ( 6, 6 ) 
AthenaPoolTestDataWriter                            DEBUG    Other matrices : 
AthenaPoolTestDataWriter                            DEBUG                   ( 4, 6 ) 
AthenaPoolTestDataWriter                            DEBUG                   ( 5, 6 ) 
AthenaPoolTestDataWriter                            DEBUG    N doubles : 273
AthenaPoolTestDataWriter                            DEBUG    Matrix maps : 2
AthenaPoolTestDataWriter                            DEBUG    Key, row, column 5 4, 4
AthenaPoolTestDataWriter                            DEBUG    Key, row, column 10 6, 6
AthenaPoolTestDataWriter                            DEBUG    Key, row, column 16 6, 6
AthenaPoolTestDataWriter                            DEBUG    Key, row, column 35 4, 4
AthenaPoolTestDataWriter                            DEBUG    Matrix transform: 
AthenaPoolTestDataWriter                            DEBUG    Matrix transform: 
AthenaPoolTestDataWriter                            DEBUG   xx -0.777778
AthenaPoolTestDataWriter                            DEBUG   xy 0.444444
AthenaPoolTestDataWriter                            DEBUG   xz 0.444444
AthenaPoolTestDataWriter                            DEBUG   yx -0.444444
AthenaPoolTestDataWriter                            DEBUG   yy 0.111111
AthenaPoolTestDataWriter                            DEBUG   yz -0.888889
AthenaPoolTestDataWriter                            DEBUG   zx -0.444444
AthenaPoolTestDataWriter                            DEBUG   zy -0.888889
AthenaPoolTestDataWriter                            DEBUG   zz 0.111111
AthenaPoolTestDataWriter                            DEBUG   dx 0
AthenaPoolTestDataWriter                            DEBUG   dy 0
AthenaPoolTestDataWriter                            DEBUG   dz 0
AthenaPoolTestDataWriter                            DEBUG AthenaPoolTestMap: key 0  word 0  Deposits: (barCode, evtIndx, wgt) 0 10 20 1 11 21 2 12 22 3 13 23 4 14 24 5 15 25 6 16 26 7 17 27 8 18 28 9 19 29 
AthenaPoolTestDataWriter                            DEBUG AthenaPoolTestMap: key 5  word 1  Deposits: (barCode, evtIndx, wgt) 0 10 20 1 11 21 2 12 22 3 13 23 4 14 24 5 15 25 6 16 26 7 17 27 8 18 28 9 19 29 
AthenaPoolTestDataWriter                            DEBUG AthenaPoolTestMap: key 10  word 2  Deposits: (barCode, evtIndx, wgt) 0 10 20 1 11 21 2 12 22 3 13 23 4 14 24 5 15 25 6 16 26 7 17 27 8 18 28 9 19 29 
AthenaPoolTestDataWriter                            DEBUG AthenaPoolTestMap: key 15  word 3  Deposits: (barCode, evtIndx, wgt) 0 10 20 1 11 21 2 12 22 3 13 23 4 14 24 5 15 25 6 16 26 7 17 27 8 18 28 9 19 29 
AthenaPoolTestDataWriter                            DEBUG AthenaPoolTestMap: key 20  word 4  Deposits: (barCode, evtIndx, wgt) 0 10 20 1 11 21 2 12 22 3 13 23 4 14 24 5 15 25 6 16 26 7 17 27 8 18 28 9 19 29 
AthenaPoolTestDataWriter                            DEBUG AthenaPoolTestMap: key 25  word 5  Deposits: (barCode, evtIndx, wgt) 0 10 20 1 11 21 2 12 22 3 13 23 4 14 24 5 15 25 6 16 26 7 17 27 8 18 28 9 19 29 
AthenaPoolTestDataWriter                            DEBUG AthenaPoolTestMap: key 30  word 6  Deposits: (barCode, evtIndx, wgt) 0 10 20 1 11 21 2 12 22 3 13 23 4 14 24 5 15 25 6 16 26 7 17 27 8 18 28 9 19 29 
AthenaPoolTestDataWriter                            DEBUG AthenaPoolTestMap: key 35  word 7  Deposits: (barCode, evtIndx, wgt) 0 10 20 1 11 21 2 12 22 3 13 23 4 14 24 5 15 25 6 16 26 7 17 27 8 18 28 9 19 29 
AthenaPoolTestDataWriter                            DEBUG AthenaPoolTestMap: key 40  word 8  Deposits: (barCode, evtIndx, wgt) 0 10 20 1 11 21 2 12 22 3 13 23 4 14 24 5 15 25 6 16 26 7 17 27 8 18 28 9 19 29 
AthenaPoolTestDataWriter                            DEBUG AthenaPoolTestMap: key 45  word 9  Deposits: (barCode, evtIndx, wgt) 0 10 20 1 11 21 2 12 22 3 13 23 4 14 24 5 15 25 6 16 26 7 17 27 8 18 28 9 19 29 
AthenaPoolTestDataWriter                            DEBUG Dummy A: size B 5
AthenaPoolTestDataWriter                            DEBUG Dummy B: size C 4
AthenaPoolTestDataWriter                            DEBUG i,c: 0 10
AthenaPoolTestDataWriter                            DEBUG i,c: 1 10
AthenaPoolTestDataWriter                            DEBUG i,c: 2 10
AthenaPoolTestDataWriter                            DEBUG i,c: 3 10
AthenaPoolTestDataWriter                            DEBUG Dummy B: size C 4
AthenaPoolTestDataWriter                            DEBUG i,c: 0 10
AthenaPoolTestDataWriter                            DEBUG i,c: 1 10
AthenaPoolTestDataWriter                            DEBUG i,c: 2 10
AthenaPoolTestDataWriter                            DEBUG i,c: 3 10
AthenaPoolTestDataWriter                            DEBUG Dummy B: size C 4
AthenaPoolTestDataWriter                            DEBUG i,c: 0 10
AthenaPoolTestDataWriter                            DEBUG i,c: 1 10
AthenaPoolTestDataWriter                            DEBUG i,c: 2 10
AthenaPoolTestDataWriter                            DEBUG i,c: 3 10
AthenaPoolTestDataWriter                            DEBUG Dummy B: size C 4
AthenaPoolTestDataWriter                            DEBUG i,c: 0 10
AthenaPoolTestDataWriter                            DEBUG i,c: 1 10
AthenaPoolTestDataWriter                            DEBUG i,c: 2 10
AthenaPoolTestDataWriter                            DEBUG i,c: 3 10
AthenaPoolTestDataWriter                            DEBUG Dummy B: size C 4
AthenaPoolTestDataWriter                            DEBUG i,c: 0 10
AthenaPoolTestDataWriter                            DEBUG i,c: 1 10
AthenaPoolTestDataWriter                            DEBUG i,c: 2 10
AthenaPoolTestDataWriter                            DEBUG i,c: 3 10
AthenaPoolTestDataWriter                            DEBUG Dummy E: size D 2
AthenaPoolTestDataWriter                            DEBUG Dummy D: value 10
AthenaPoolTestDataWriter                            DEBUG Dummy D: value 10
AthenaPoolTestDataWriter                            DEBUG Event ID: [1,4294967296:0] 
AthenaPoolTestDataWriter                            DEBUG Event type: user type McEvent weight 0: 0.9876 weight 1: 1.9876 weight 2: 2.9876
AthenaPoolTestDataWriter                            DEBUG Setting actual interatctions per crossing: 35.23 and ave: 169.41
AthenaPoolTestDataWriter                            DEBUG Setting flag: i, flags 0 ffffff00  flags fffff00
AthenaPoolTestDataWriter                            DEBUG Setting bit 6: i, isSet 0 1 flags fffff40
AthenaPoolTestDataWriter                            DEBUG Unsetting bit 10: i, isSet 0 0 flags ffffb40
AthenaPoolTestDataWriter                            DEBUG Returned false for trying to set bit 29 for subDet 0 
AthenaPoolTestDataWriter                            DEBUG Setting error state: i, state 0 0
AthenaPoolTestDataWriter                            DEBUG Subdet: 0 error state: NotSet 0
AthenaPoolTestDataWriter                            DEBUG Setting flag: i, flags 1 ffffff03  flags fffff03
AthenaPoolTestDataWriter                            DEBUG Setting bit 6: i, isSet 1 1 flags fffff43
AthenaPoolTestDataWriter                            DEBUG Unsetting bit 10: i, isSet 1 0 flags ffffb43
AthenaPoolTestDataWriter                            DEBUG Returned false for trying to set bit 29 for subDet 1 
AthenaPoolTestDataWriter                            DEBUG Setting error state: i, state 1 1
AthenaPoolTestDataWriter                            DEBUG Subdet: 1 error state: Warning 1
AthenaPoolTestDataWriter                            DEBUG Setting flag: i, flags 2 ffffff06  flags fffff06
AthenaPoolTestDataWriter                            DEBUG Setting bit 6: i, isSet 2 1 flags fffff46
AthenaPoolTestDataWriter                            DEBUG Unsetting bit 10: i, isSet 2 0 flags ffffb46
AthenaPoolTestDataWriter                            DEBUG Returned false for trying to set bit 29 for subDet 2 
AthenaPoolTestDataWriter                            DEBUG Setting error state: i, state 2 2
AthenaPoolTestDataWriter                            DEBUG Subdet: 2 error state: Error 2
AthenaPoolTestDataWriter                            DEBUG Setting flag: i, flags 3 ffffff09  flags fffff09
AthenaPoolTestDataWriter                            DEBUG Setting bit 6: i, isSet 3 1 flags fffff49
AthenaPoolTestDataWriter                            DEBUG Unsetting bit 10: i, isSet 3 0 flags ffffb49
AthenaPoolTestDataWriter                            DEBUG Returned false for trying to set bit 29 for subDet 3 
AthenaPoolTestDataWriter                            DEBUG Setting error state: i, state 3 0
AthenaPoolTestDataWriter                            DEBUG Subdet: 3 error state: NotSet 0
AthenaPoolTestDataWriter                            DEBUG Setting flag: i, flags 4 ffffff0c  flags fffff0c
AthenaPoolTestDataWriter                            DEBUG Setting bit 6: i, isSet 4 1 flags fffff4c
AthenaPoolTestDataWriter                            DEBUG Unsetting bit 10: i, isSet 4 0 flags ffffb4c
AthenaPoolTestDataWriter                            DEBUG Returned false for trying to set bit 29 for subDet 4 
AthenaPoolTestDataWriter                            DEBUG Setting error state: i, state 4 1
AthenaPoolTestDataWriter                            DEBUG Subdet: 4 error state: Warning 1
AthenaPoolTestDataWriter                            DEBUG Setting flag: i, flags 5 ffffff0f  flags fffff0f
AthenaPoolTestDataWriter                            DEBUG Setting bit 6: i, isSet 5 1 flags fffff4f
AthenaPoolTestDataWriter                            DEBUG Unsetting bit 10: i, isSet 5 0 flags ffffb4f
AthenaPoolTestDataWriter                            DEBUG Returned false for trying to set bit 29 for subDet 5 
AthenaPoolTestDataWriter                            DEBUG Setting error state: i, state 5 2
AthenaPoolTestDataWriter                            DEBUG Subdet: 5 error state: Error 2
AthenaPoolTestDataWriter                            DEBUG Setting flag: i, flags 6 ffffff12  flags fffff12
AthenaPoolTestDataWriter                            DEBUG Setting bit 6: i, isSet 6 1 flags fffff52
AthenaPoolTestDataWriter                            DEBUG Unsetting bit 10: i, isSet 6 0 flags ffffb52
AthenaPoolTestDataWriter                            DEBUG Returned false for trying to set bit 29 for subDet 6 
AthenaPoolTestDataWriter                            DEBUG Setting error state: i, state 6 0
AthenaPoolTestDataWriter                            DEBUG Subdet: 6 error state: NotSet 0
AthenaPoolTestDataWriter                            DEBUG Setting flag: i, flags 7 ffffff15  flags fffff15
AthenaPoolTestDataWriter                            DEBUG Setting bit 6: i, isSet 7 1 flags fffff55
AthenaPoolTestDataWriter                            DEBUG Unsetting bit 10: i, isSet 7 0 flags ffffb55
AthenaPoolTestDataWriter                            DEBUG Returned false for trying to set bit 29 for subDet 7 
AthenaPoolTestDataWriter                            DEBUG Setting error state: i, state 7 1
AthenaPoolTestDataWriter                            DEBUG Subdet: 7 error state: Warning 1
AthenaPoolTestDataWriter                            DEBUG Setting flag: i, flags 8 ffffff18  flags fffff18
AthenaPoolTestDataWriter                            DEBUG Setting bit 6: i, isSet 8 1 flags fffff58
AthenaPoolTestDataWriter                            DEBUG Unsetting bit 10: i, isSet 8 0 flags ffffb58
AthenaPoolTestDataWriter                            DEBUG Returned false for trying to set bit 29 for subDet 8 
AthenaPoolTestDataWriter                            DEBUG Setting error state: i, state 8 2
AthenaPoolTestDataWriter                            DEBUG Subdet: 8 error state: Error 2
AthenaPoolTestDataWriter                            DEBUG PileUpEventInfo
AthenaPoolTestDataWriter                            DEBUG Event ID: [1,4294967296:12] 
AthenaPoolTestDataWriter                            DEBUG Event type: user type Overlaid
AthenaPoolTestDataWriter                            DEBUG Trigger info: status 7 extLvl1ID 8 lvl1Type  9 lvl1Info  14 15 lvl2Info 10 11 EventFilterInfo 12 13 EventFilterInfo  i 0 name StreamA type TypeA ObeyLumi 1 i 1 name StreamB type TypeB ObeyLumi 0
AthenaPoolTestDataWriter                            DEBUG SubEventInfos
AthenaPoolTestDataWriter                            DEBUG Time, index 25 0
AthenaPoolTestDataWriter                            DEBUG Event ID: [1,4294967296:0] 
AthenaPoolTestDataWriter                            DEBUG Event type: user type McEvent
AthenaPoolTestDataWriter                            DEBUG Pileup time, index type 25 0
AthenaPoolTestDataWriter                            DEBUG Executing AthenaPoolTestDataWriter
AthenaPoolTestDataWriter                            DEBUG Collection of A's
AthenaPoolTestDataWriter                            DEBUG AthenaPoolTestA::printWhoYouAre A - a, b 1 2
AthenaPoolTestDataWriter                            DEBUG AthenaPoolTestA::printWhoYouAre A - a, b 2 3
AthenaPoolTestDataWriter                            DEBUG AthenaPoolTestA::printWhoYouAre A - a, b 3 4
AthenaPoolTestDataWriter                            DEBUG AthenaPoolTestA::printWhoYouAre A - a, b 4 5
AthenaPoolTestDataWriter                            DEBUG AthenaPoolTestA::printWhoYouAre A - a, b 5 6
AthenaPoolTestDataWriter                            DEBUG Collection of B's
AthenaPoolTestDataWriter                            DEBUG AthenaPoolTestB::printWhoYouAre B - c, d 11 12 fa, da 7 13
AthenaPoolTestDataWriter                            DEBUG AthenaPoolTestB::printWhoYouAre B - c, d 12 13 fa, da 7 13
AthenaPoolTestDataWriter                            DEBUG AthenaPoolTestB::printWhoYouAre B - c, d 13 14 fa, da 7 13
AthenaPoolTestDataWriter                            DEBUG AthenaPoolTestB::printWhoYouAre B - c, d 14 15 fa, da 7 13
AthenaPoolTestDataWriter                            DEBUG AthenaPoolTestB::printWhoYouAre B - c, d 15 16 fa, da 7 13
AthenaPoolTestDataWriter                            DEBUG Collection of A's and B's
AthenaPoolTestDataWriter                            DEBUG AthenaPoolTestA::printWhoYouAre A - a, b 21 22
AthenaPoolTestDataWriter                            DEBUG AthenaPoolTestA::printWhoYouAre A - a, b 22 23
AthenaPoolTestDataWriter                            DEBUG AthenaPoolTestA::printWhoYouAre A - a, b 23 24
AthenaPoolTestDataWriter                            DEBUG AthenaPoolTestB::printWhoYouAre B - c, d 24 25 fa, da 7 13
AthenaPoolTestDataWriter                            DEBUG AthenaPoolTestB::printWhoYouAre B - c, d 25 26 fa, da 7 13
AthenaPoolTestDataWriter                            DEBUG AthenaPoolTestB::printWhoYouAre B - c, d 26 27 fa, da 7 13
AthenaPoolTestDataWriter                            DEBUG Collection of C's
AthenaPoolTestDataWriter                            DEBUG AthenaPoolTestC::printWhoYouAre C - a, b, c, d 0 0 3 4
AthenaPoolTestDataWriter                            DEBUG AthenaPoolTestC::printWhoYouAre C - a, b, c, d 0 0 4 5
AthenaPoolTestDataWriter                            DEBUG AthenaPoolTestC::printWhoYouAre C - a, b, c, d 0 0 5 6
AthenaPoolTestDataWriter                            DEBUG AthenaPoolTestC::printWhoYouAre C - a, b, c, d 0 0 6 7
AthenaPoolTestDataWriter                            DEBUG AthenaPoolTestC::printWhoYouAre C - a, b, c, d 0 0 7 8
AthenaPoolTestDataWriter                            DEBUG Collection of D's
AthenaPoolTestDataWriter                            DEBUG AthenaPoolTestD::printWhoYouAre D - e, f 15 16 AthenaPoolTestC::printWhoYouAre C - a, b, c, d 0 0 13 14
AthenaPoolTestDataWriter                            DEBUG AthenaPoolTestD::printWhoYouAre D - e, f 16 17 AthenaPoolTestC::printWhoYouAre C - a, b, c, d 0 0 14 15
AthenaPoolTestDataWriter                            DEBUG AthenaPoolTestD::printWhoYouAre D - e, f 17 18 AthenaPoolTestC::printWhoYouAre C - a, b, c, d 0 0 15 16
AthenaPoolTestDataWriter                            DEBUG AthenaPoolTestD::printWhoYouAre D - e, f 18 19 AthenaPoolTestC::printWhoYouAre C - a, b, c, d 0 0 16 17
AthenaPoolTestDataWriter                            DEBUG AthenaPoolTestD::printWhoYouAre D - e, f 19 20 AthenaPoolTestC::printWhoYouAre C - a, b, c, d 0 0 17 18
AthenaPoolTestDataWriter                            DEBUG Registering matrix 1 AthenaPoolTestMatrix_0
AthenaPoolTestDataWriter                            DEBUG    Points (by value,by ptr) x,y,z : 1 2 3 , x,y,z 4 5 6 
AthenaPoolTestDataWriter                            DEBUG    Small matrix : ( 4, 4 ) 
AthenaPoolTestDataWriter                            DEBUG    Big matrix : ( 6, 6 ) 
AthenaPoolTestDataWriter                            DEBUG    Other matrices : 
AthenaPoolTestDataWriter                            DEBUG                   ( 4, 2 ) 
AthenaPoolTestDataWriter                            DEBUG                   ( 5, 2 ) 
AthenaPoolTestDataWriter                            DEBUG    N doubles : 73
AthenaPoolTestDataWriter                            DEBUG    Matrix maps : 2
AthenaPoolTestDataWriter                            DEBUG    Key, row, column 5 4, 4
AthenaPoolTestDataWriter                            DEBUG    Key, row, column 10 6, 6
AthenaPoolTestDataWriter                            DEBUG    Key, row, column 16 6, 6
AthenaPoolTestDataWriter                            DEBUG    Key, row, column 35 4, 4
AthenaPoolTestDataWriter                            DEBUG    Matrix transform: 
AthenaPoolTestDataWriter                            DEBUG    Matrix transform: 
AthenaPoolTestDataWriter                            DEBUG   xx 1
AthenaPoolTestDataWriter                            DEBUG   xy 0
AthenaPoolTestDataWriter                            DEBUG   xz 0
AthenaPoolTestDataWriter                            DEBUG   yx 0
AthenaPoolTestDataWriter                            DEBUG   yy 1
AthenaPoolTestDataWriter                            DEBUG   yz 0
AthenaPoolTestDataWriter                            DEBUG   zx 0
AthenaPoolTestDataWriter                            DEBUG   zy 0
AthenaPoolTestDataWriter                            DEBUG   zz 1
AthenaPoolTestDataWriter                            DEBUG   dx 0
AthenaPoolTestDataWriter                            DEBUG   dy 0
AthenaPoolTestDataWriter                            DEBUG   dz 0
AthenaPoolTestDataWriter                            DEBUG Registering matrix 2 AthenaPoolTestMatrix_1
AthenaPoolTestDataWriter                            DEBUG    Points (by value,by ptr) x,y,z : 1 2 3 , x,y,z 4 5 6 
AthenaPoolTestDataWriter                            DEBUG    Small matrix : ( 4, 4 ) 
AthenaPoolTestDataWriter                            DEBUG    Big matrix : ( 6, 6 ) 
AthenaPoolTestDataWriter                            DEBUG    Other matrices : 
AthenaPoolTestDataWriter                            DEBUG                   ( 4, 4 ) 
AthenaPoolTestDataWriter                            DEBUG                   ( 5, 4 ) 
AthenaPoolTestDataWriter                            DEBUG    N doubles : 164
AthenaPoolTestDataWriter                            DEBUG    Matrix maps : 2
AthenaPoolTestDataWriter                            DEBUG    Key, row, column 5 4, 4
AthenaPoolTestDataWriter                            DEBUG    Key, row, column 10 6, 6
AthenaPoolTestDataWriter                            DEBUG    Key, row, column 16 6, 6
AthenaPoolTestDataWriter                            DEBUG    Key, row, column 35 4, 4
AthenaPoolTestDataWriter                            DEBUG    Matrix transform: 
AthenaPoolTestDataWriter                            DEBUG    Matrix transform: 
AthenaPoolTestDataWriter                            DEBUG   xx -0.333333
AthenaPoolTestDataWriter                            DEBUG   xy 0.666667
AthenaPoolTestDataWriter                            DEBUG   xz 0.666667
AthenaPoolTestDataWriter                            DEBUG   yx -0.666667
AthenaPoolTestDataWriter                            DEBUG   yy 0.333333
AthenaPoolTestDataWriter                            DEBUG   yz -0.666667
AthenaPoolTestDataWriter                            DEBUG   zx -0.666667
AthenaPoolTestDataWriter                            DEBUG   zy -0.666667
AthenaPoolTestDataWriter                            DEBUG   zz 0.333333
AthenaPoolTestDataWriter                            DEBUG   dx 0
AthenaPoolTestDataWriter                            DEBUG   dy 0
AthenaPoolTestDataWriter                            DEBUG   dz 0
AthenaPoolTestDataWriter                            DEBUG Registering matrix 3 AthenaPoolTestMatrix_2
AthenaPoolTestDataWriter                            DEBUG    Points (by value,by ptr) x,y,z : 1 2 3 , x,y,z 4 5 6 
AthenaPoolTestDataWriter                            DEBUG    Small matrix : ( 4, 4 ) 
AthenaPoolTestDataWriter                            DEBUG    Big matrix : ( 6, 6 ) 
AthenaPoolTestDataWriter                            DEBUG    Other matrices : 
AthenaPoolTestDataWriter                            DEBUG                   ( 4, 6 ) 
AthenaPoolTestDataWriter                            DEBUG                   ( 5, 6 ) 
AthenaPoolTestDataWriter                            DEBUG    N doubles : 273
AthenaPoolTestDataWriter                            DEBUG    Matrix maps : 2
AthenaPoolTestDataWriter                            DEBUG    Key, row, column 5 4, 4
AthenaPoolTestDataWriter                            DEBUG    Key, row, column 10 6, 6
AthenaPoolTestDataWriter                            DEBUG    Key, row, column 16 6, 6
AthenaPoolTestDataWriter                            DEBUG    Key, row, column 35 4, 4
AthenaPoolTestDataWriter                            DEBUG    Matrix transform: 
AthenaPoolTestDataWriter                            DEBUG    Matrix transform: 
AthenaPoolTestDataWriter                            DEBUG   xx -0.777778
AthenaPoolTestDataWriter                            DEBUG   xy 0.444444
AthenaPoolTestDataWriter                            DEBUG   xz 0.444444
AthenaPoolTestDataWriter                            DEBUG   yx -0.444444
AthenaPoolTestDataWriter                            DEBUG   yy 0.111111
AthenaPoolTestDataWriter                            DEBUG   yz -0.888889
AthenaPoolTestDataWriter                            DEBUG   zx -0.444444
AthenaPoolTestDataWriter                            DEBUG   zy -0.888889
AthenaPoolTestDataWriter                            DEBUG   zz 0.111111
AthenaPoolTestDataWriter                            DEBUG   dx 0
AthenaPoolTestDataWriter                            DEBUG   dy 0
AthenaPoolTestDataWriter                            DEBUG   dz 0
AthenaPoolTestDataWriter                            DEBUG AthenaPoolTestMap: key 0  word 0  Deposits: (barCode, evtIndx, wgt) 0 10 20 1 11 21 2 12 22 3 13 23 4 14 24 5 15 25 6 16 26 7 17 27 8 18 28 9 19 29 
AthenaPoolTestDataWriter                            DEBUG AthenaPoolTestMap: key 5  word 1  Deposits: (barCode, evtIndx, wgt) 0 10 20 1 11 21 2 12 22 3 13 23 4 14 24 5 15 25 6 16 26 7 17 27 8 18 28 9 19 29 
AthenaPoolTestDataWriter                            DEBUG AthenaPoolTestMap: key 10  word 2  Deposits: (barCode, evtIndx, wgt) 0 10 20 1 11 21 2 12 22 3 13 23 4 14 24 5 15 25 6 16 26 7 17 27 8 18 28 9 19 29 
AthenaPoolTestDataWriter                            DEBUG AthenaPoolTestMap: key 15  word 3  Deposits: (barCode, evtIndx, wgt) 0 10 20 1 11 21 2 12 22 3 13 23 4 14 24 5 15 25 6 16 26 7 17 27 8 18 28 9 19 29 
AthenaPoolTestDataWriter                            DEBUG AthenaPoolTestMap: key 20  word 4  Deposits: (barCode, evtIndx, wgt) 0 10 20 1 11 21 2 12 22 3 13 23 4 14 24 5 15 25 6 16 26 7 17 27 8 18 28 9 19 29 
AthenaPoolTestDataWriter                            DEBUG AthenaPoolTestMap: key 25  word 5  Deposits: (barCode, evtIndx, wgt) 0 10 20 1 11 21 2 12 22 3 13 23 4 14 24 5 15 25 6 16 26 7 17 27 8 18 28 9 19 29 
AthenaPoolTestDataWriter                            DEBUG AthenaPoolTestMap: key 30  word 6  Deposits: (barCode, evtIndx, wgt) 0 10 20 1 11 21 2 12 22 3 13 23 4 14 24 5 15 25 6 16 26 7 17 27 8 18 28 9 19 29 
AthenaPoolTestDataWriter                            DEBUG AthenaPoolTestMap: key 35  word 7  Deposits: (barCode, evtIndx, wgt) 0 10 20 1 11 21 2 12 22 3 13 23 4 14 24 5 15 25 6 16 26 7 17 27 8 18 28 9 19 29 
AthenaPoolTestDataWriter                            DEBUG AthenaPoolTestMap: key 40  word 8  Deposits: (barCode, evtIndx, wgt) 0 10 20 1 11 21 2 12 22 3 13 23 4 14 24 5 15 25 6 16 26 7 17 27 8 18 28 9 19 29 
AthenaPoolTestDataWriter                            DEBUG AthenaPoolTestMap: key 45  word 9  Deposits: (barCode, evtIndx, wgt) 0 10 20 1 11 21 2 12 22 3 13 23 4 14 24 5 15 25 6 16 26 7 17 27 8 18 28 9 19 29 
AthenaPoolTestDataWriter                            DEBUG Dummy A: size B 5
AthenaPoolTestDataWriter                            DEBUG Dummy B: size C 4
AthenaPoolTestDataWriter                            DEBUG i,c: 0 10
AthenaPoolTestDataWriter                            DEBUG i,c: 1 10
AthenaPoolTestDataWriter                            DEBUG i,c: 2 10
AthenaPoolTestDataWriter                            DEBUG i,c: 3 10
AthenaPoolTestDataWriter                            DEBUG Dummy B: size C 4
AthenaPoolTestDataWriter                            DEBUG i,c: 0 10
AthenaPoolTestDataWriter                            DEBUG i,c: 1 10
AthenaPoolTestDataWriter                            DEBUG i,c: 2 10
AthenaPoolTestDataWriter                            DEBUG i,c: 3 10
AthenaPoolTestDataWriter                            DEBUG Dummy B: size C 4
AthenaPoolTestDataWriter                            DEBUG i,c: 0 10
AthenaPoolTestDataWriter                            DEBUG i,c: 1 10
AthenaPoolTestDataWriter                            DEBUG i,c: 2 10
AthenaPoolTestDataWriter                            DEBUG i,c: 3 10
AthenaPoolTestDataWriter                            DEBUG Dummy B: size C 4
AthenaPoolTestDataWriter                            DEBUG i,c: 0 10
AthenaPoolTestDataWriter                            DEBUG i,c: 1 10
AthenaPoolTestDataWriter                            DEBUG i,c: 2 10
AthenaPoolTestDataWriter                            DEBUG i,c: 3 10
AthenaPoolTestDataWriter                            DEBUG Dummy B: size C 4
AthenaPoolTestDataWriter                            DEBUG i,c: 0 10
AthenaPoolTestDataWriter                            DEBUG i,c: 1 10
AthenaPoolTestDataWriter                            DEBUG i,c: 2 10
AthenaPoolTestDataWriter                            DEBUG i,c: 3 10
AthenaPoolTestDataWriter                            DEBUG Dummy E: size D 2
AthenaPoolTestDataWriter                            DEBUG Dummy D: value 10
AthenaPoolTestDataWriter                            DEBUG Dummy D: value 10
AthenaPoolTestDataWriter                            DEBUG Event ID: [1,4294967297:5] 
AthenaPoolTestDataWriter                            DEBUG Event type: user type McEvent weight 0: 0.9876 weight 1: 1.9876 weight 2: 2.9876
AthenaPoolTestDataWriter                            DEBUG Setting actual interatctions per crossing: 35.23 and ave: 169.41
AthenaPoolTestDataWriter                            DEBUG Setting flag: i, flags 0 ffffff00  flags fffff00
AthenaPoolTestDataWriter                            DEBUG Setting bit 6: i, isSet 0 1 flags fffff40
AthenaPoolTestDataWriter                            DEBUG Unsetting bit 10: i, isSet 0 0 flags ffffb40
AthenaPoolTestDataWriter                            DEBUG Returned false for trying to set bit 29 for subDet 0 
AthenaPoolTestDataWriter                            DEBUG Setting error state: i, state 0 0
AthenaPoolTestDataWriter                            DEBUG Subdet: 0 error state: NotSet 0
AthenaPoolTestDataWriter                            DEBUG Setting flag: i, flags 1 ffffff03  flags fffff03
AthenaPoolTestDataWriter                            DEBUG Setting bit 6: i, isSet 1 1 flags fffff43
AthenaPoolTestDataWriter                            DEBUG Unsetting bit 10: i, isSet 1 0 flags ffffb43
AthenaPoolTestDataWriter                            DEBUG Returned false for trying to set bit 29 for subDet 1 
AthenaPoolTestDataWriter                            DEBUG Setting error state: i, state 1 1
AthenaPoolTestDataWriter                            DEBUG Subdet: 1 error state: Warning 1
AthenaPoolTestDataWriter                            DEBUG Setting flag: i, flags 2 ffffff06  flags fffff06
AthenaPoolTestDataWriter                            DEBUG Setting bit 6: i, isSet 2 1 flags fffff46
AthenaPoolTestDataWriter                            DEBUG Unsetting bit 10: i, isSet 2 0 flags ffffb46
AthenaPoolTestDataWriter                            DEBUG Returned false for trying to set bit 29 for subDet 2 
AthenaPoolTestDataWriter                            DEBUG Setting error state: i, state 2 2
AthenaPoolTestDataWriter                            DEBUG Subdet: 2 error state: Error 2
AthenaPoolTestDataWriter                            DEBUG Setting flag: i, flags 3 ffffff09  flags fffff09
AthenaPoolTestDataWriter                            DEBUG Setting bit 6: i, isSet 3 1 flags fffff49
AthenaPoolTestDataWriter                            DEBUG Unsetting bit 10: i, isSet 3 0 flags ffffb49
AthenaPoolTestDataWriter                            DEBUG Returned false for trying to set bit 29 for subDet 3 
AthenaPoolTestDataWriter                            DEBUG Setting error state: i, state 3 0
AthenaPoolTestDataWriter                            DEBUG Subdet: 3 error state: NotSet 0
AthenaPoolTestDataWriter                            DEBUG Setting flag: i, flags 4 ffffff0c  flags fffff0c
AthenaPoolTestDataWriter                            DEBUG Setting bit 6: i, isSet 4 1 flags fffff4c
AthenaPoolTestDataWriter                            DEBUG Unsetting bit 10: i, isSet 4 0 flags ffffb4c
AthenaPoolTestDataWriter                            DEBUG Returned false for trying to set bit 29 for subDet 4 
AthenaPoolTestDataWriter                            DEBUG Setting error state: i, state 4 1
AthenaPoolTestDataWriter                            DEBUG Subdet: 4 error state: Warning 1
AthenaPoolTestDataWriter                            DEBUG Setting flag: i, flags 5 ffffff0f  flags fffff0f
AthenaPoolTestDataWriter                            DEBUG Setting bit 6: i, isSet 5 1 flags fffff4f
AthenaPoolTestDataWriter                            DEBUG Unsetting bit 10: i, isSet 5 0 flags ffffb4f
AthenaPoolTestDataWriter                            DEBUG Returned false for trying to set bit 29 for subDet 5 
AthenaPoolTestDataWriter                            DEBUG Setting error state: i, state 5 2
AthenaPoolTestDataWriter                            DEBUG Subdet: 5 error state: Error 2
AthenaPoolTestDataWriter                            DEBUG Setting flag: i, flags 6 ffffff12  flags fffff12
AthenaPoolTestDataWriter                            DEBUG Setting bit 6: i, isSet 6 1 flags fffff52
AthenaPoolTestDataWriter                            DEBUG Unsetting bit 10: i, isSet 6 0 flags ffffb52
AthenaPoolTestDataWriter                            DEBUG Returned false for trying to set bit 29 for subDet 6 
AthenaPoolTestDataWriter                            DEBUG Setting error state: i, state 6 0
AthenaPoolTestDataWriter                            DEBUG Subdet: 6 error state: NotSet 0
AthenaPoolTestDataWriter                            DEBUG Setting flag: i, flags 7 ffffff15  flags fffff15
AthenaPoolTestDataWriter                            DEBUG Setting bit 6: i, isSet 7 1 flags fffff55
AthenaPoolTestDataWriter                            DEBUG Unsetting bit 10: i, isSet 7 0 flags ffffb55
AthenaPoolTestDataWriter                            DEBUG Returned false for trying to set bit 29 for subDet 7 
AthenaPoolTestDataWriter                            DEBUG Setting error state: i, state 7 1
AthenaPoolTestDataWriter                            DEBUG Subdet: 7 error state: Warning 1
AthenaPoolTestDataWriter                            DEBUG Setting flag: i, flags 8 ffffff18  flags fffff18
AthenaPoolTestDataWriter                            DEBUG Setting bit 6: i, isSet 8 1 flags fffff58
AthenaPoolTestDataWriter                            DEBUG Unsetting bit 10: i, isSet 8 0 flags ffffb58
AthenaPoolTestDataWriter                            DEBUG Returned false for trying to set bit 29 for subDet 8 
AthenaPoolTestDataWriter                            DEBUG Setting error state: i, state 8 2
AthenaPoolTestDataWriter                            DEBUG Subdet: 8 error state: Error 2
AthenaPoolTestDataWriter                            DEBUG PileUpEventInfo
AthenaPoolTestDataWriter                            DEBUG Event ID: [1,4294967297:12] 
AthenaPoolTestDataWriter                            DEBUG Event type: user type Overlaid
AthenaPoolTestDataWriter                            DEBUG Trigger info: status 7 extLvl1ID 8 lvl1Type  9 lvl1Info  14 15 lvl2Info 10 11 EventFilterInfo 12 13 EventFilterInfo  i 0 name StreamA type TypeA ObeyLumi 1 i 1 name StreamB type TypeB ObeyLumi 0
AthenaPoolTestDataWriter                            DEBUG SubEventInfos
AthenaPoolTestDataWriter                            DEBUG Time, index 25 0
AthenaPoolTestDataWriter                            DEBUG Event ID: [1,4294967297:5] 
AthenaPoolTestDataWriter                            DEBUG Event type: user type McEvent
AthenaPoolTestDataWriter                            DEBUG Pileup time, index type 25 0
